module golang

go 1.20

require (
	github.com/aws/aws-lambda-go v1.41.0 // indirect
	github.com/aws/aws-sdk-go-v2 v1.18.1 // indirect
	github.com/aws/aws-sdk-go-v2/config v1.18.27 // indirect
	github.com/aws/aws-sdk-go-v2/credentials v1.13.26 // indirect
	github.com/aws/aws-sdk-go-v2/feature/ec2/imds v1.13.4 // indirect
	github.com/aws/aws-sdk-go-v2/internal/configsources v1.1.34 // indirect
	github.com/aws/aws-sdk-go-v2/internal/endpoints/v2 v2.4.28 // indirect
	github.com/aws/aws-sdk-go-v2/internal/ini v1.3.35 // indirect
	github.com/aws/aws-sdk-go-v2/service/internal/presigned-url v1.9.28 // indirect
	github.com/aws/aws-sdk-go-v2/service/secretsmanager v1.19.10 // indirect
	github.com/aws/aws-sdk-go-v2/service/sso v1.12.12 // indirect
	github.com/aws/aws-sdk-go-v2/service/ssooidc v1.14.12 // indirect
	github.com/aws/aws-sdk-go-v2/service/sts v1.19.2 // indirect
	github.com/aws/smithy-go v1.13.5 // indirect
	github.com/golang/snappy v0.0.1 // indirect
	github.com/klauspost/compress v1.13.6 // indirect
	github.com/montanaflynn/stats v0.0.0-20171201202039-1bf9dbcd8cbe // indirect
	github.com/xdg-go/pbkdf2 v1.0.0 // indirect
	github.com/xdg-go/scram v1.1.2 // indirect
	github.com/xdg-go/stringprep v1.0.4 // indirect
	github.com/youmark/pkcs8 v0.0.0-20181117223130-1be2e3e5546d // indirect
	go.mongodb.org/mongo-driver v1.12.0 // indirect
	golang.org/x/crypto v0.0.0-20220622213112-05595931fe9d // indirect
	golang.org/x/sync v0.0.0-20220722155255-886fb9371eb4 // indirect
	golang.org/x/text v0.7.0 // indirect
)
